2020-02-08 02:15:53,464 ERROR: Exception on /edit_profile [GET] [in /home/cj/Projects/flask_tutorial/microblog/venv/lib/python3.6/site-packages/flask/app.py:1891]
Traceback (most recent call last):
  File "/home/cj/Projects/flask_tutorial/microblog/venv/lib/python3.6/site-packages/flask/app.py", line 2446, in wsgi_app
    response = self.full_dispatch_request()
  File "/home/cj/Projects/flask_tutorial/microblog/venv/lib/python3.6/site-packages/flask/app.py", line 1951, in full_dispatch_request
    rv = self.handle_user_exception(e)
  File "/home/cj/Projects/flask_tutorial/microblog/venv/lib/python3.6/site-packages/flask/app.py", line 1820, in handle_user_exception
    reraise(exc_type, exc_value, tb)
  File "/home/cj/Projects/flask_tutorial/microblog/venv/lib/python3.6/site-packages/flask/_compat.py", line 39, in reraise
    raise value
  File "/home/cj/Projects/flask_tutorial/microblog/venv/lib/python3.6/site-packages/flask/app.py", line 1949, in full_dispatch_request
    rv = self.dispatch_request()
  File "/home/cj/Projects/flask_tutorial/microblog/venv/lib/python3.6/site-packages/flask/app.py", line 1935, in dispatch_request
    return self.view_functions[rule.endpoint](**req.view_args)
  File "/home/cj/Projects/flask_tutorial/microblog/venv/lib/python3.6/site-packages/flask_login/utils.py", line 261, in decorated_view
    return func(*args, **kwargs)
  File "/home/cj/Projects/flask/FlaskTutorial/microblog/app/main/routes.py", line 78, in edit_profile
    return render_template('edit_profile.html', title='Edit Profile', form=form)
  File "/home/cj/Projects/flask_tutorial/microblog/venv/lib/python3.6/site-packages/flask/templating.py", line 138, in render_template
    ctx.app.jinja_env.get_or_select_template(template_name_or_list),
  File "/home/cj/Projects/flask_tutorial/microblog/venv/lib/python3.6/site-packages/jinja2/environment.py", line 869, in get_or_select_template
    return self.get_template(template_name_or_list, parent, globals)
  File "/home/cj/Projects/flask_tutorial/microblog/venv/lib/python3.6/site-packages/jinja2/environment.py", line 830, in get_template
    return self._load_template(name, self.make_globals(globals))
  File "/home/cj/Projects/flask_tutorial/microblog/venv/lib/python3.6/site-packages/jinja2/environment.py", line 804, in _load_template
    template = self.loader.load(self, name, globals)
  File "/home/cj/Projects/flask_tutorial/microblog/venv/lib/python3.6/site-packages/jinja2/loaders.py", line 113, in load
    source, filename, uptodate = self.get_source(environment, name)
  File "/home/cj/Projects/flask_tutorial/microblog/venv/lib/python3.6/site-packages/flask/templating.py", line 60, in get_source
    return self._get_source_fast(environment, template)
  File "/home/cj/Projects/flask_tutorial/microblog/venv/lib/python3.6/site-packages/flask/templating.py", line 89, in _get_source_fast
    raise TemplateNotFound(template)
jinja2.exceptions.TemplateNotFound: auth/edit_profile.html
2020-02-08 02:15:55,843 INFO: Microblog startup [in /home/cj/Projects/flask/FlaskTutorial/microblog/app/__init__.py:67]
2020-02-08 02:16:22,261 ERROR: Exception on /auth/logout [GET] [in /home/cj/Projects/flask_tutorial/microblog/venv/lib/python3.6/site-packages/flask/app.py:1891]
Traceback (most recent call last):
  File "/home/cj/Projects/flask_tutorial/microblog/venv/lib/python3.6/site-packages/flask/app.py", line 2446, in wsgi_app
    response = self.full_dispatch_request()
  File "/home/cj/Projects/flask_tutorial/microblog/venv/lib/python3.6/site-packages/flask/app.py", line 1951, in full_dispatch_request
    rv = self.handle_user_exception(e)
  File "/home/cj/Projects/flask_tutorial/microblog/venv/lib/python3.6/site-packages/flask/app.py", line 1820, in handle_user_exception
    reraise(exc_type, exc_value, tb)
  File "/home/cj/Projects/flask_tutorial/microblog/venv/lib/python3.6/site-packages/flask/_compat.py", line 39, in reraise
    raise value
  File "/home/cj/Projects/flask_tutorial/microblog/venv/lib/python3.6/site-packages/flask/app.py", line 1949, in full_dispatch_request
    rv = self.dispatch_request()
  File "/home/cj/Projects/flask_tutorial/microblog/venv/lib/python3.6/site-packages/flask/app.py", line 1935, in dispatch_request
    return self.view_functions[rule.endpoint](**req.view_args)
  File "/home/cj/Projects/flask/FlaskTutorial/microblog/app/auth/routes.py", line 32, in logout
    return redirect(url_for('auth.index'))
  File "/home/cj/Projects/flask_tutorial/microblog/venv/lib/python3.6/site-packages/flask/helpers.py", line 370, in url_for
    return appctx.app.handle_url_build_error(error, endpoint, values)
  File "/home/cj/Projects/flask_tutorial/microblog/venv/lib/python3.6/site-packages/flask/app.py", line 2215, in handle_url_build_error
    reraise(exc_type, exc_value, tb)
  File "/home/cj/Projects/flask_tutorial/microblog/venv/lib/python3.6/site-packages/flask/_compat.py", line 39, in reraise
    raise value
  File "/home/cj/Projects/flask_tutorial/microblog/venv/lib/python3.6/site-packages/flask/helpers.py", line 358, in url_for
    endpoint, values, method=method, force_external=external
  File "/home/cj/Projects/flask_tutorial/microblog/venv/lib/python3.6/site-packages/werkzeug/routing.py", line 2020, in build
    raise BuildError(endpoint, values, method, self)
werkzeug.routing.BuildError: Could not build url for endpoint 'auth.index'. Did you mean 'auth.login' instead?
2020-02-08 02:17:18,488 ERROR: Exception on /auth/logout [GET] [in /home/cj/Projects/flask_tutorial/microblog/venv/lib/python3.6/site-packages/flask/app.py:1891]
Traceback (most recent call last):
  File "/home/cj/Projects/flask_tutorial/microblog/venv/lib/python3.6/site-packages/flask/app.py", line 2446, in wsgi_app
    response = self.full_dispatch_request()
  File "/home/cj/Projects/flask_tutorial/microblog/venv/lib/python3.6/site-packages/flask/app.py", line 1951, in full_dispatch_request
    rv = self.handle_user_exception(e)
  File "/home/cj/Projects/flask_tutorial/microblog/venv/lib/python3.6/site-packages/flask/app.py", line 1820, in handle_user_exception
    reraise(exc_type, exc_value, tb)
  File "/home/cj/Projects/flask_tutorial/microblog/venv/lib/python3.6/site-packages/flask/_compat.py", line 39, in reraise
    raise value
  File "/home/cj/Projects/flask_tutorial/microblog/venv/lib/python3.6/site-packages/flask/app.py", line 1949, in full_dispatch_request
    rv = self.dispatch_request()
  File "/home/cj/Projects/flask_tutorial/microblog/venv/lib/python3.6/site-packages/flask/app.py", line 1935, in dispatch_request
    return self.view_functions[rule.endpoint](**req.view_args)
  File "/home/cj/Projects/flask/FlaskTutorial/microblog/app/auth/routes.py", line 32, in logout
    return redirect(url_for('main.index'))
  File "/home/cj/Projects/flask_tutorial/microblog/venv/lib/python3.6/site-packages/flask/helpers.py", line 370, in url_for
    return appctx.app.handle_url_build_error(error, endpoint, values)
  File "/home/cj/Projects/flask_tutorial/microblog/venv/lib/python3.6/site-packages/flask/app.py", line 2215, in handle_url_build_error
    reraise(exc_type, exc_value, tb)
  File "/home/cj/Projects/flask_tutorial/microblog/venv/lib/python3.6/site-packages/flask/_compat.py", line 39, in reraise
    raise value
  File "/home/cj/Projects/flask_tutorial/microblog/venv/lib/python3.6/site-packages/flask/helpers.py", line 358, in url_for
    endpoint, values, method=method, force_external=external
  File "/home/cj/Projects/flask_tutorial/microblog/venv/lib/python3.6/site-packages/werkzeug/routing.py", line 2020, in build
    raise BuildError(endpoint, values, method, self)
werkzeug.routing.BuildError: Could not build url for endpoint 'auth.index'. Did you mean 'auth.login' instead?
2020-02-08 02:17:26,896 INFO: Microblog startup [in /home/cj/Projects/flask/FlaskTutorial/microblog/app/__init__.py:67]
2020-02-08 02:17:33,452 INFO: Microblog startup [in /home/cj/Projects/flask/FlaskTutorial/microblog/app/__init__.py:67]
